{
  "version": 1,
  "notes": "",
  "documentation": "\"This file is a QMK Configurator export. You can import this at <https://config.qmk.fm>. It can also be used directly with QMK's source code.\n\nTo setup your QMK environment check out the tutorial: <https://docs.qmk.fm/#/newbs>\n\nYou can convert this file to a keymap.c using this command: `qmk json2c {keymap}`\n\nYou can compile this keymap using this command: `qmk compile {keymap}`\"\n",
  "keyboard": "crkbd/rev1",
  "keymap": "corny",
  "layout": "LAYOUT_split_3x6_3",
  "layers": [
    [
      "KC_TAB",
      "KC_Q",
      "KC_W",
      "KC_E",
      "KC_R",
      "KC_T",
      "MO(5)",
      "KC_Y",
      "KC_U",
      "KC_I",
      "KC_O",
      "KC_P",
      "KC_ESC",
      "KC_A",
      "KC_S",
      "KC_D",
      "KC_F",
      "KC_G",
      "KC_BSPC",
      "KC_H",
      "KC_J",
      "KC_K",
      "KC_L",
      "KC_SCLN",
      "KC_LALT",
      "KC_Z",
      "KC_X",
      "KC_C",
      "KC_V",
      "MO(1)",
      "MO(2)",
      "KC_B",
      "KC_N",
      "KC_M",
      "KC_COMM",
      "KC_DOT",
      "MO(3)",
      "KC_LGUI",
      "KC_SPC",
      "KC_ENT",
      "KC_RSFT",
      "KC_RCTL"
    ],
    [
      "KC_NO",
      "KC_NO",
      "KC_NO",
      "KC_NO",
      "KC_NO",
      "KC_NO",
      "KC_MRWD",
      "KC_LPRN",
      "KC_LCBR",
      "KC_RCBR",
      "KC_RPRN",
      "KC_NO",
      "KC_NO",
      "KC_NO",
      "KC_NO",
      "KC_NO",
      "KC_NO",
      "KC_NO",
      "KC_MPLY",
      "KC_LEFT",
      "KC_DOWN",
      "KC_UP",
      "KC_RGHT",
      "KC_CIRC",
      "KC_NO",
      "KC_NO",
      "KC_NO",
      "KC_NO",
      "KC_NO",
      "KC_TRNS",
      "KC_MFFD",
      "KC_LT",
      "KC_LBRC",
      "KC_RBRC",
      "KC_GT",
      "KC_SLSH",
      "KC_NO",
      "KC_NO",
      "KC_NO",
      "KC_NO",
      "KC_NO",
      "KC_NO"
    ],
    [
      "KC_NO",
      "KC_QUOT",
      "KC_HASH",
      "KC_DLR",
      "KC_PERC",
      "LCTL(KC_RBRC)",
      "KC_NO",
      "KC_NO",
      "KC_NO",
      "KC_NO",
      "KC_NO",
      "KC_NO",
      "KC_NO",
      "KC_DQUO",
      "KC_AT",
      "KC_EXLM",
      "KC_QUES",
      "KC_BSLS",
      "KC_NO",
      "KC_NO",
      "KC_NO",
      "KC_NO",
      "KC_NO",
      "KC_NO",
      "KC_NO",
      "KC_GRV",
      "KC_AMPR",
      "KC_UNDS",
      "KC_PIPE",
      "KC_TILD",
      "KC_TRNS",
      "KC_NO",
      "KC_NO",
      "KC_NO",
      "KC_NO",
      "KC_NO",
      "KC_NO",
      "KC_NO",
      "KC_NO",
      "KC_NO",
      "KC_NO",
      "KC_NO"
    ],
    [
      "KC_NO",
      "KC_NO",
      "KC_NO",
      "KC_NO",
      "KC_NO",
      "KC_NO",
      "KC_NO",
      "KC_5",
      "KC_6",
      "KC_7",
      "KC_8",
      "KC_9",
      "KC_NO",
      "KC_NO",
      "KC_NO",
      "KC_NO",
      "KC_NO",
      "KC_NO",
      "KC_0",
      "KC_1",
      "KC_2",
      "KC_3",
      "KC_4",
      "KC_NO",
      "KC_NO",
      "KC_NO",
      "KC_NO",
      "KC_NO",
      "KC_NO",
      "KC_NO",
      "KC_PCMM",
      "KC_PPLS",
      "KC_PMNS",
      "KC_PAST",
      "KC_PSLS",
      "KC_NO",
      "KC_TRNS",
      "KC_NO",
      "TO(4)",
      "KC_EQL",
      "KC_PGDN",
      "KC_PGUP"
    ],
    [
      "KC_1",
      "KC_TAB",
      "KC_Q",
      "KC_W",
      "KC_E",
      "KC_R",
      "KC_NO",
      "KC_NO",
      "KC_NO",
      "KC_NO",
      "KC_NO",
      "KC_NO",
      "KC_2",
      "KC_LSFT",
      "KC_A",
      "KC_S",
      "KC_D",
      "KC_F",
      "KC_NO",
      "KC_NO",
      "KC_NO",
      "KC_NO",
      "KC_NO",
      "KC_NO",
      "KC_3",
      "KC_LCTL",
      "KC_Z",
      "KC_X",
      "KC_C",
      "KC_V",
      "KC_NO",
      "KC_NO",
      "KC_NO",
      "KC_NO",
      "KC_NO",
      "KC_NO",
      "TO(0)",
      "KC_LALT",
      "KC_SPC",
      "KC_NO",
      "KC_NO",
      "KC_NO"
    ],
    [
      "KC_NO",
      "LGUI(KC_5)",
      "LGUI(KC_6)",
      "LGUI(KC_7)",
      "LGUI(KC_8)",
      "LGUI(KC_9)",
      "KC_TRNS",
      "KC_NO",
      "KC_NO",
      "KC_NO",
      "KC_NO",
      "KC_NO",
      "KC_NO",
      "LGUI(KC_1)",
      "LGUI(KC_2)",
      "LGUI(KC_3)",
      "LGUI(KC_4)",
      "LGUI(KC_MINS)",
      "KC_NO",
      "KC_NO",
      "KC_NO",
      "KC_NO",
      "KC_NO",
      "KC_NO",
      "KC_NO",
      "KC_NO",
      "KC_NO",
      "KC_NO",
      "KC_NO",
      "KC_NO",
      "KC_NO",
      "KC_NO",
      "KC_NO",
      "KC_NO",
      "KC_NO",
      "KC_NO",
      "KC_NO",
      "KC_NO",
      "KC_NO",
      "KC_NO",
      "KC_RSFT",
      "KC_NO"
    ]
  ],
  "author": ""
}
